namemd,0,1,2,3,4,5,6,7,8,9
ADB,0.39292035398230085,0.4123893805309734,0.415929203539823,0.3982300884955752,0.368141592920354,0.44424778761061945,0.3911504424778761,0.39292035398230085,0.4343971631205674,0.40602836879432624
BNB,0.38761061946902653,0.41769911504424784,0.4070796460176991,0.3982300884955752,0.34159292035398225,0.47079646017699117,0.3946902654867257,0.3858407079646018,0.40957446808510634,0.3599290780141844
GB,0.3787610619469026,0.3769911504424779,0.39292035398230085,0.40530973451327434,0.3646017699115044,0.4371681415929204,0.3858407079646018,0.38407079646017694,0.38475177304964536,0.37765957446808507
LGB,0.368141592920354,0.368141592920354,0.37522123893805315,0.3610619469026549,0.3221238938053097,0.41061946902654867,0.38761061946902653,0.35044247787610616,0.38475177304964536,0.3563829787234043
LGB DART,0.3787610619469026,0.3823008849557522,0.3911504424778761,0.4,0.32035398230088497,0.4371681415929204,0.39646017699115044,0.3734513274336283,0.375886524822695,0.36170212765957444
RF,0.3610619469026549,0.3911504424778761,0.38407079646017694,0.40176991150442476,0.3433628318584071,0.43539823008849554,0.4035398230088496,0.3734513274336283,0.375886524822695,0.3670212765957447
SVM,0.3769911504424779,0.3982300884955752,0.415929203539823,0.39292035398230085,0.3557522123893805,0.463716814159292,0.40530973451327434,0.3893805309734514,0.4148936170212766,0.3829787234042553
XGB,0.3699115044247787,0.37522123893805315,0.3893805309734514,0.40884955752212393,0.3486725663716814,0.4212389380530973,0.38761061946902653,0.3787610619469026,0.38829787234042556,0.37765957446808507
